{
  "config": 1,
  "result": {
    "selection_accuracy": 1,
    "nullscore_minus_rss": 1,
    "solution": {
      "gap": 1,
      "computations_runtime": 1,
      "complete_runtime": 1,
      "rss": 1,
      "provable_optimal": 1,
      "null_score": 1,
      "subset_size": 1
    }
  }
}