{
  "experiment": "padm_computational_study",
  "sub_experiment": "mip_mini",
  "version": "frieda",
  "number_of_repetitions": 50,
  "method": "mip",
  "timelimit": 3600,
  "n": 180,
  "p": 60,
  "number_of_nonzeros": 30,
  "number_of_threads": 1,
  "min_coef": 1.0,
  "max_coef": 1.0,
  "sigma_type": "rho",
  "sigma_param": 0.0,
  "snr": [0.05, 0.3, 1.0, 6.0],
  "mute": true,
  "k": [5, 30, 55],
  "warmstart": ["none", "padm"]
}
