{
  "experiment": "padm_computational_study",
  "sub_experiment": "padm",
  "version": "frieda",
  "number_of_repetitions": 50,
  "method": "padm",
  "timelimit": 3600,
  "n": 300,
  "p": 100,
  "number_of_nonzeros": 50,
  "number_of_threads": 1,
  "min_coef": 1.0,
  "max_coef": 1.0,
  "sigma_type": "rho",
  "sigma_param": 0.0,
  "snr": [0.05, 0.3, 1.0, 6.0],
  "mute": true,
  "k": [5, 50, 95],
  "start_penalization_correction": [0.3, 0.5, 0.8]
}
